<svg width="45" height="30" viewBox="0 0 45 30" fill="none" xmlns="http://www.w3.org/2000/svg">
<rect x="1" y="1" width="43" height="28" rx="2" stroke="white" stroke-width="2"/>
<path d="M22.002 12.73C22.002 13.858 21.714 14.722 21.138 15.322C20.562 15.922 19.788 16.222 18.816 16.222C17.844 16.222 17.07 15.922 16.494 15.322C15.918 14.722 15.63 13.858 15.63 12.73C15.63 11.602 15.918 10.738 16.494 10.138C17.07 9.538 17.844 9.238 18.816 9.238C19.788 9.238 20.562 9.538 21.138 10.138C21.714 10.738 22.002 11.602 22.002 12.73ZM19.968 12.73C19.968 12.118 19.86 11.674 19.644 11.398C19.428 11.122 19.152 10.984 18.816 10.984C18.468 10.984 18.186 11.122 17.97 11.398C17.766 11.674 17.664 12.118 17.664 12.73C17.664 13.342 17.766 13.792 17.97 14.08C18.186 14.356 18.468 14.494 18.816 14.494C19.152 14.494 19.428 14.356 19.644 14.08C19.86 13.792 19.968 13.342 19.968 12.73ZM25.512 9.526H28.014L20.976 22H18.474L25.512 9.526ZM30.894 18.796C30.894 19.924 30.606 20.788 30.03 21.388C29.454 21.988 28.68 22.288 27.708 22.288C26.736 22.288 25.962 21.988 25.386 21.388C24.81 20.788 24.522 19.924 24.522 18.796C24.522 17.668 24.81 16.804 25.386 16.204C25.962 15.604 26.736 15.304 27.708 15.304C28.68 15.304 29.454 15.604 30.03 16.204C30.606 16.804 30.894 17.668 30.894 18.796ZM28.86 18.796C28.86 18.184 28.752 17.74 28.536 17.464C28.32 17.188 28.044 17.05 27.708 17.05C27.36 17.05 27.078 17.188 26.862 17.464C26.658 17.74 26.556 18.184 26.556 18.796C26.556 19.408 26.658 19.858 26.862 20.146C27.078 20.422 27.36 20.56 27.708 20.56C28.044 20.56 28.32 20.422 28.536 20.146C28.752 19.858 28.86 19.408 28.86 18.796Z" fill="white"/>
</svg>
