<svg width="74" height="568" viewBox="0 0 74 568" fill="none" xmlns="http://www.w3.org/2000/svg">
<path d="M50.2897 0L73.29 0C73.29 0 46.29 172.591 46.29 284C46.29 395.409 73.29 568 73.29 568H50.2895C14.0754 347.068 13.7319 222.659 50.2897 0Z" fill="#78BE20"/>
<path d="M27.2897 0L50.29 0C50.29 0 23.29 172.591 23.29 284C23.29 395.409 50.29 568 50.29 568H27.2895C-8.92458 347.068 -9.2681 222.659 27.2897 0Z" fill="white"/>
</svg>
